{
	"info": {
		"_postman_id": "7b39484a-f4b1-4665-9d99-f00c176414af",
		"name": "Tasks",
		"description": "This collection is a simple API documentation.\n\nStart with login method and then run the methods as needed.",
		"schema": "https://schema.getpostman.com/json/collection/v2.1.0/collection.json",
		"_exporter_id": "4848755"
	},
	"item": [
		{
			"name": "Tasks",
			"item": [
				{
					"name": "List Tasks",
					"request": {
						"method": "GET",
						"header": [],
						"url": {
							"raw": "http://localhost:8000/api/tasks",
							"protocol": "http",
							"host": [
								"localhost"
							],
							"port": "8000",
							"path": [
								"api",
								"tasks"
							]
						},
						"description": "This method list all tasks.\n\nNo parameters are required.\n\n### Response\n\n``` json\n{\n    \"task\": [\n        {\n            \"id\": 1,\n            \"title\": \"Task 01\",\n            \"description\": \"Creating a task 01\",\n            \"status\": 1,\n            \"created_at\": \"2023-08-06T14:43:39.000000Z\",\n            \"updated_at\": \"2023-08-06T14:43:39.000000Z\"\n        },\n        {\n            \"id\": 2,\n            \"title\": \"Task 02\",\n            \"description\": \"Creating a task 02\",\n            \"status\": 1,\n            \"created_at\": \"2023-08-06T14:45:25.000000Z\",\n            \"updated_at\": \"2023-08-06T15:18:12.000000Z\"\n        }\n    ]\n}\n\n```"
					},
					"response": []
				},
				{
					"name": "Create Task",
					"request": {
						"method": "POST",
						"header": [],
						"body": {
							"mode": "raw",
							"raw": "{\n    \"title\": \"Task 03\",\n    \"description\": \"Creating a task 03\",\n    \"status\": 1\n}",
							"options": {
								"raw": {
									"language": "json"
								}
							}
						},
						"url": {
							"raw": "http://localhost:8000/api/task/create",
							"protocol": "http",
							"host": [
								"localhost"
							],
							"port": "8000",
							"path": [
								"api",
								"task",
								"create"
							]
						},
						"description": "Create a new task.\n\nThis fields are required:\n\n*   title: string\n*   description: string\n    \n\n### Response\n\n``` json\n{\n    \"message\": \"Task created with success\"\n}\n\n```"
					},
					"response": []
				},
				{
					"name": "Get Task",
					"request": {
						"method": "GET",
						"header": [],
						"url": {
							"raw": "http://localhost:8000/api/task/1",
							"protocol": "http",
							"host": [
								"localhost"
							],
							"port": "8000",
							"path": [
								"api",
								"task",
								"1"
							]
						},
						"description": "Retrieve a task by id and a id must be informed as a parameter in the url.\n\nThis fields are required:\n\n*   id: integer\n    \n\n### Response\n\n``` json\n{\n    \"task\": {\n        \"id\": 1,\n        \"title\": \"Task 01\",\n        \"description\": \"Creating a task 01\",\n        \"status\": 1,\n        \"created_at\": \"2023-08-06T14:43:39.000000Z\",\n        \"updated_at\": \"2023-08-06T14:43:39.000000Z\"\n    }\n}\n\n```"
					},
					"response": []
				},
				{
					"name": "Edit Task",
					"request": {
						"method": "PUT",
						"header": [],
						"body": {
							"mode": "raw",
							"raw": "{\n    \"id\": 2,\n    \"title\": \"Task 02\",\n    \"description\": \"Creating a task 02\",\n    \"status\": 1\n}",
							"options": {
								"raw": {
									"language": "json"
								}
							}
						},
						"url": {
							"raw": "http://localhost:8000/api/task/edit/2",
							"protocol": "http",
							"host": [
								"localhost"
							],
							"port": "8000",
							"path": [
								"api",
								"task",
								"edit",
								"2"
							]
						},
						"description": "Update a task by id and a id must be informed as a parameter in the url.\n\nThis fields are required:\n\n*   id: integer\n    \n\n### Response\n\n``` json\n{\n    \"message\": \"Task updated with success\"\n}\n\n```"
					},
					"response": []
				}
			],
			"description": "This collection manipulate a task, you to create, to read, to edit a task and too list all tasks.",
			"auth": {
				"type": "bearer",
				"bearer": [
					{
						"key": "token",
						"value": "{{token}}",
						"type": "string"
					}
				]
			},
			"event": [
				{
					"listen": "prerequest",
					"script": {
						"type": "text/javascript",
						"exec": [
							""
						]
					}
				},
				{
					"listen": "test",
					"script": {
						"type": "text/javascript",
						"exec": [
							""
						]
					}
				}
			]
		},
		{
			"name": "Login",
			"event": [
				{
					"listen": "test",
					"script": {
						"exec": [
							"const respostaJson = pm.response.json();",
							"const token = respostaJson.token;",
							"",
							"// Grava o token na variável de ambiente",
							"pm.collectionVariables.set('token', token);"
						],
						"type": "text/javascript"
					}
				}
			],
			"request": {
				"method": "POST",
				"header": [],
				"body": {
					"mode": "raw",
					"raw": "{\n    \"email\": \"fulano@example.com\",\n    \"password\": \"$1245\"\n}",
					"options": {
						"raw": {
							"language": "json"
						}
					}
				},
				"url": {
					"raw": "http://localhost:8000/api/login",
					"protocol": "http",
					"host": [
						"localhost"
					],
					"port": "8000",
					"path": [
						"api",
						"login"
					]
				},
				"description": "Get a token to connect in the API."
			},
			"response": []
		},
		{
			"name": "Logout",
			"request": {
				"auth": {
					"type": "bearer",
					"bearer": [
						{
							"key": "token",
							"value": "{{token}}",
							"type": "string"
						}
					]
				},
				"method": "POST",
				"header": [],
				"url": {
					"raw": "http://localhost:8000/api/logout",
					"protocol": "http",
					"host": [
						"localhost"
					],
					"port": "8000",
					"path": [
						"api",
						"logout"
					]
				},
				"description": "Exit the app and revoke the token in the app.\n\nNo parameter is required."
			},
			"response": []
		}
	],
	"event": [
		{
			"listen": "prerequest",
			"script": {
				"type": "text/javascript",
				"exec": [
					""
				]
			}
		},
		{
			"listen": "test",
			"script": {
				"type": "text/javascript",
				"exec": [
					""
				]
			}
		}
	],
	"variable": [
		{
			"key": "token",
			"value": "",
			"type": "string"
		}
	]
}